{
  "$schema": "http://json-schema.org/schema#",
  "title": "YAML Schema for Work-Order",
  "description": "A schema for Ambassador work-orders.",
  "type": "array",
  "items": {
    "type": "object",
    "description": "some descrp",
    "required": ["Name", "Type", "Stereotype", "Description" ],
    "additionalProperties": false,
    "properties": {
      "Name": {
        "type":"string",
        "description": "TODO"
      },
      "Type": {
        "type": "string",
        "description": "TODO",
        "enum": ["Class"]
      },
      "Stereotype":{
        "type":"string",
        "description": "TODO",
        "enum": ["none","Compound","LNClass"]
      },
      "Description": {
        "type": "string",
        "description": "TODO"
      },
      "Members": {
        "type": "array",
        "description": "TODO",
        "items": {
          "type": "object",
          "description": "TODO",
          "additionalProperties": false,
          "required": ["Name", "Type", "Description", "SequenceNumber"],
          "properties": {
            "Name": {
              "type": "string",
              "description": "TODO"
            },
            "Type": {
              "type": "string",
              "description": "TODO",
              "enum": ["bool",
                       "INT32",
                       "FLOAT32",
                       "MV",
                       "UnitSymbolKind",
                       "UnitMultiplierKind"
                      ]
            },
            "Description": {
              "type": "string",
              "description": "TODO"
            },
            "SequenceNumber":{
              "type": "integer",
              "description": "TODO"
            },
            "Readonly": {
              "type": "boolean",
              "description": "TODO"
            }
          }
        }
      }
    }
  }
}